DM Object: box 1 MPI processes
  type: plex
box in 3 dimensions:
  Number of 0-cells per rank: 729
  Number of 1-cells per rank: 1944
  Number of 2-cells per rank: 1728
  Number of 3-cells per rank: 512
Labels:
  celltype: 4 strata with value/size (0 (729), 1 (1944), 4 (1728), 7 (512))
  depth: 4 strata with value/size (0 (729), 1 (1944), 2 (1728), 3 (512))
  marker: 1 strata with value/size (1 (1440))
  Face Sets: 6 strata with value/size (6 (144), 5 (144), 3 (144), 4 (144), 1 (144), 2 (144))
  Linear solve converged due to CONVERGED_RTOL iterations 5
Nonlinear solve converged due to CONVERGED_ITS iterations 1
  Linear solve converged due to CONVERGED_RTOL iterations 5
  Linear solve converged due to CONVERGED_RTOL iterations 5
  Linear solve converged due to CONVERGED_RTOL iterations 5
  Linear solve converged due to CONVERGED_RTOL iterations 5
  Linear solve converged due to CONVERGED_RTOL iterations 5
  Linear solve converged due to CONVERGED_RTOL iterations 5
  Linear solve converged due to CONVERGED_RTOL iterations 5
  Linear solve converged due to CONVERGED_RTOL iterations 5
  Linear solve converged due to CONVERGED_RTOL iterations 5
  Linear solve converged due to CONVERGED_RTOL iterations 5
