DM Object: Cells 1 MPI processes
  type: plex
Cells in 2 dimensions:
  Number of 0-cells per rank: 15
  Number of 1-cells per rank: 30
  Number of 2-cells per rank: 16
Labels:
  celltype: 3 strata with value/size (0 (15), 3 (16), 1 (30))
  depth: 3 strata with value/size (0 (15), 1 (30), 2 (16))
  marker: 1 strata with value/size (1 (24))
  Face Sets: 1 strata with value/size (1 (12))
DM Object: Swarm 1 MPI processes
  type: swarm
Swarm in 2 dimensions:
  Number of particles per rank: 144
