DM Object: box 1 MPI processes
  type: plex
box in 2 dimensions:
  Number of 0-cells per rank: 4
  Number of 1-cells per rank: 4
  Number of 2-cells per rank: 1
Labels:
  marker: 1 strata with value/size (1 (8))
  Face Sets: 4 strata with value/size (4 (1), 2 (1), 1 (1), 3 (1))
  depth: 3 strata with value/size (0 (4), 1 (4), 2 (1))
  celltype: 3 strata with value/size (4 (1), 0 (4), 1 (4))
Time     Step Part     Energy Mod Energy
0.000000    0    0  1969.6730  1969.6730
0.000000    0    1  3001.2156  3001.2156
0.000500   50    0  1969.6327  1969.5924
0.000500   50    1  3001.1541  3001.0927
0.001000  100    0  1969.5925  1969.5121
0.001000  100    1  3001.0930  3000.9704
p0 error [2e-05 2.7e-07] sol [0.978663 -4.014168] exact [0.978683 -4.014168] energy/exact energy 1969.59 / 1969.67 (0.0040847409%)
p1 error [2.5e-05 3.4e-07] sol [1.208049 -4.955039] exact [1.208074 -4.955039] energy/exact energy 3001.09 / 3001.22 (0.0040847409%)
Time     Step Part     Energy Mod Energy
0.000000    0    0  1969.6730  1969.6730
0.000000    0    1  3001.2156  3001.2156
0.000250   50    0  1969.6629  1969.6528
0.000250   50    1  3001.2002  3001.1848
0.000500  100    0  1969.6528  1969.6327
0.000500  100    1  3001.1849  3001.1541
0.000750  150    0  1969.6428  1969.6126
0.000750  150    1  3001.1695  3001.1235
0.001000  200    0  1969.6328  1969.5925
0.001000  200    1  3001.1543  3001.0930
p0 error [1e-05 6.8e-08] sol [0.978673 -4.014168] exact [0.978683 -4.014168] energy/exact energy 1969.63 / 1969.67 (0.0020423913%)
p1 error [1.2e-05 8.5e-08] sol [1.208062 -4.955039] exact [1.208074 -4.955039] energy/exact energy 3001.15 / 3001.22 (0.0020423913%)
Time     Step Part     Energy Mod Energy
0.000000    0    0  1969.6730  1969.6730
0.000000    0    1  3001.2156  3001.2156
0.000125   50    0  1969.6705  1969.6679
0.000125   50    1  3001.2117  3001.2079
0.000250  100    0  1969.6679  1969.6629
0.000250  100    1  3001.2079  3001.2002
0.000375  150    0  1969.6654  1969.6579
0.000375  150    1  3001.2041  3001.1925
0.000500  200    0  1969.6629  1969.6528
0.000500  200    1  3001.2002  3001.1849
0.000625  250    0  1969.6604  1969.6478
0.000625  250    1  3001.1964  3001.1772
0.000750  300    0  1969.6579  1969.6428
0.000750  300    1  3001.1926  3001.1695
0.000875  350    0  1969.6554  1969.6378
0.000875  350    1  3001.1887  3001.1619
0.001000  400    0  1969.6529  1969.6328
0.001000  400    1  3001.1849  3001.1543
p0 error [5e-06 1.7e-08] sol [0.978678 -4.014168] exact [0.978683 -4.014168] energy/exact energy 1969.65 / 1969.67 (0.0010212009%)
p1 error [6.2e-06 2.1e-08] sol [1.208068 -4.955039] exact [1.208074 -4.955039] energy/exact energy 3001.18 / 3001.22 (0.0010212009%)
L_2 convergence rate: 1.0
Time     Step Part     Energy Mod Energy
0.000000    0    0  1969.6730  1969.6730
0.000000    0    1  3001.2156  3001.2156
0.000500   50    0  1969.6327  1969.5924
0.000500   50    1  3001.1541  3001.0927
0.001000  100    0  1969.5925  1969.5121
0.001000  100    1  3001.0930  3000.9704
