DM Object: box 1 MPI processes
  type: plex
box in 2 dimensions:
  Number of 0-cells per rank: 121
  Number of 1-cells per rank: 220
  Number of 2-cells per rank: 100
Labels:
  marker: 1 strata with value/size (1 (80))
  Face Sets: 4 strata with value/size (4 (10), 2 (10), 1 (10), 3 (10))
  depth: 3 strata with value/size (0 (121), 1 (220), 2 (100))
  celltype: 3 strata with value/size (4 (100), 0 (121), 1 (220))
Time     Step Part     Energy
0.000000    0    0   500.0000
0.000000    0    1   500.0000
0.000000    0    2   500.0000
0.000000    0    3   500.0000
0.000000    0    4   500.0000
0.000000    0    5   250.0000
0.000000    0    6   250.0000
0.000000    0    7   250.0000
0.000000    0    8   250.0000
0.000000    0    9   250.0000
0.000500   50    0   500.0025
0.000500   50    1   500.0025
0.000500   50    2   500.0025
0.000500   50    3   500.0025
0.000500   50    4   500.0025
0.000500   50    5   250.0002
0.000500   50    6   250.0002
0.000500   50    7   250.0002
0.000500   50    8   250.0002
0.000500   50    9   250.0002
0.001000  100    0   500.0050
0.001000  100    1   500.0050
0.001000  100    2   500.0050
0.001000  100    3   500.0050
0.001000  100    4   500.0050
0.001000  100    5   250.0003
0.001000  100    6   250.0003
0.001000  100    7   250.0003
0.001000  100    8   250.0003
0.001000  100    9   250.0003
t 0.001: p0 error [5e-06 0.00016] sol [(0.999495 0.031618) (-0.999833 31.607125)] exact [(0.999500 0.031618) (-0.999833 31.606967)] energy/exact energy 500.005 / 500. (0.0009993385%)
t 0.001: p1 error [5e-06 0.00016] sol [(0.278791 0.960347) (-30.369127 8.816241)] exact [(0.278792 0.960351) (-30.368977 8.816192)] energy/exact energy 500.005 / 500. (0.0009993385%)
t 0.001: p2 error [5e-06 0.00016] sol [(-0.827193 0.561909) (-17.769320 -26.158388)] exact [(-0.827197 0.561912) (-17.769227 -26.158260)] energy/exact energy 500.005 / 500. (0.0009993385%)
t 0.001: p3 error [5e-06 0.00016] sol [(-0.790024 -0.613068) (19.387084 -24.983014)] exact [(-0.790028 -0.613070) (19.386991 -24.982886)] energy/exact energy 500.005 / 500. (0.0009993385%)
t 0.001: p4 error [5e-06 0.00016] sol [(0.338931 -0.940806) (29.751196 10.718037)] exact [(0.338933 -0.940811) (29.751046 10.717988)] energy/exact energy 500.005 / 500. (0.0009993385%)
t 0.001: p5 error [1.2e-06 1.4e-05] sol [(1.999874 0.022360) (-0.249995 22.359296)] exact [(1.999875 0.022360) (-0.249995 22.359282)] energy/exact energy 250. / 250. (0.0001249897%)
t 0.001: p6 error [1.2e-06 1.4e-05] sol [(0.596729 1.908903) (-21.342207 6.671643)] exact [(0.596730 1.908904) (-21.342194 6.671639)] energy/exact energy 250. / 250. (0.0001249897%)
t 0.001: p7 error [1.2e-06 1.4e-05] sol [(-1.631075 1.157407) (-12.940215 -18.235994)] exact [(-1.631076 1.157407) (-12.940206 -18.235983)] energy/exact energy 250. / 250. (0.0001249897%)
t 0.001: p8 error [1.2e-06 1.4e-05] sol [(-1.604789 -1.193586) (13.344715 -17.942107)] exact [(-1.604790 -1.193587) (13.344706 -17.942096)] energy/exact energy 250. / 250. (0.0001249897%)
t 0.001: p9 error [1.2e-06 1.4e-05] sol [(0.639261 -1.895083) (21.187702 7.147162)] exact [(0.639261 -1.895084) (21.187688 7.147157)] energy/exact energy 250. / 250. (0.0001249897%)
Time     Step Part     Energy
0.000000    0    0   500.0000
0.000000    0    1   500.0000
0.000000    0    2   500.0000
0.000000    0    3   500.0000
0.000000    0    4   500.0000
0.000000    0    5   250.0000
0.000000    0    6   250.0000
0.000000    0    7   250.0000
0.000000    0    8   250.0000
0.000000    0    9   250.0000
0.000250   50    0   500.0006
0.000250   50    1   500.0006
0.000250   50    2   500.0006
0.000250   50    3   500.0006
0.000250   50    4   500.0006
0.000250   50    5   250.0000
0.000250   50    6   250.0000
0.000250   50    7   250.0000
0.000250   50    8   250.0000
0.000250   50    9   250.0000
0.000500  100    0   500.0012
0.000500  100    1   500.0012
0.000500  100    2   500.0012
0.000500  100    3   500.0012
0.000500  100    4   500.0012
0.000500  100    5   250.0001
0.000500  100    6   250.0001
0.000500  100    7   250.0001
0.000500  100    8   250.0001
0.000500  100    9   250.0001
0.000750  150    0   500.0019
0.000750  150    1   500.0019
0.000750  150    2   500.0019
0.000750  150    3   500.0019
0.000750  150    4   500.0019
0.000750  150    5   250.0001
0.000750  150    6   250.0001
0.000750  150    7   250.0001
0.000750  150    8   250.0001
0.000750  150    9   250.0001
0.001000  200    0   500.0025
0.001000  200    1   500.0025
0.001000  200    2   500.0025
0.001000  200    3   500.0025
0.001000  200    4   500.0025
0.001000  200    5   250.0002
0.001000  200    6   250.0002
0.001000  200    7   250.0002
0.001000  200    8   250.0002
0.001000  200    9   250.0002
t 0.001: p0 error [2.5e-06 7.9e-05] sol [(0.999498 0.031618) (-0.999833 31.607046)] exact [(0.999500 0.031618) (-0.999833 31.606967)] energy/exact energy 500.002 / 500. (0.0004996680%)
t 0.001: p1 error [2.5e-06 7.9e-05] sol [(0.278792 0.960349) (-30.369052 8.816216)] exact [(0.278792 0.960351) (-30.368977 8.816192)] energy/exact energy 500.002 / 500. (0.0004996680%)
t 0.001: p2 error [2.5e-06 7.9e-05] sol [(-0.827195 0.561911) (-17.769273 -26.158324)] exact [(-0.827197 0.561912) (-17.769227 -26.158260)] energy/exact energy 500.002 / 500. (0.0004996680%)
t 0.001: p3 error [2.5e-06 7.9e-05] sol [(-0.790026 -0.613069) (19.387037 -24.982950)] exact [(-0.790028 -0.613070) (19.386991 -24.982886)] energy/exact energy 500.002 / 500. (0.0004996680%)
t 0.001: p4 error [2.5e-06 7.9e-05] sol [(0.338932 -0.940808) (29.751121 10.718012)] exact [(0.338933 -0.940811) (29.751046 10.717988)] energy/exact energy 500.002 / 500. (0.0004996680%)
t 0.001: p5 error [6.2e-07 7e-06] sol [(1.999874 0.022360) (-0.249995 22.359289)] exact [(1.999875 0.022360) (-0.249995 22.359282)] energy/exact energy 250. / 250. (0.0000624948%)
t 0.001: p6 error [6.2e-07 7e-06] sol [(0.596729 1.908903) (-21.342200 6.671641)] exact [(0.596730 1.908904) (-21.342194 6.671639)] energy/exact energy 250. / 250. (0.0000624948%)
t 0.001: p7 error [6.2e-07 7e-06] sol [(-1.631075 1.157407) (-12.940210 -18.235988)] exact [(-1.631076 1.157407) (-12.940206 -18.235983)] energy/exact energy 250. / 250. (0.0000624948%)
t 0.001: p8 error [6.2e-07 7e-06] sol [(-1.604789 -1.193586) (13.344710 -17.942102)] exact [(-1.604790 -1.193587) (13.344706 -17.942096)] energy/exact energy 250. / 250. (0.0000624948%)
t 0.001: p9 error [6.2e-07 7e-06] sol [(0.639261 -1.895084) (21.187695 7.147160)] exact [(0.639261 -1.895084) (21.187688 7.147157)] energy/exact energy 250. / 250. (0.0000624948%)
Time     Step Part     Energy
0.000000    0    0   500.0000
0.000000    0    1   500.0000
0.000000    0    2   500.0000
0.000000    0    3   500.0000
0.000000    0    4   500.0000
0.000000    0    5   250.0000
0.000000    0    6   250.0000
0.000000    0    7   250.0000
0.000000    0    8   250.0000
0.000000    0    9   250.0000
0.000125   50    0   500.0002
0.000125   50    1   500.0002
0.000125   50    2   500.0002
0.000125   50    3   500.0002
0.000125   50    4   500.0002
0.000125   50    5   250.0000
0.000125   50    6   250.0000
0.000125   50    7   250.0000
0.000125   50    8   250.0000
0.000125   50    9   250.0000
0.000250  100    0   500.0003
0.000250  100    1   500.0003
0.000250  100    2   500.0003
0.000250  100    3   500.0003
0.000250  100    4   500.0003
0.000250  100    5   250.0000
0.000250  100    6   250.0000
0.000250  100    7   250.0000
0.000250  100    8   250.0000
0.000250  100    9   250.0000
0.000375  150    0   500.0005
0.000375  150    1   500.0005
0.000375  150    2   500.0005
0.000375  150    3   500.0005
0.000375  150    4   500.0005
0.000375  150    5   250.0000
0.000375  150    6   250.0000
0.000375  150    7   250.0000
0.000375  150    8   250.0000
0.000375  150    9   250.0000
0.000500  200    0   500.0006
0.000500  200    1   500.0006
0.000500  200    2   500.0006
0.000500  200    3   500.0006
0.000500  200    4   500.0006
0.000500  200    5   250.0000
0.000500  200    6   250.0000
0.000500  200    7   250.0000
0.000500  200    8   250.0000
0.000500  200    9   250.0000
0.000625  250    0   500.0008
0.000625  250    1   500.0008
0.000625  250    2   500.0008
0.000625  250    3   500.0008
0.000625  250    4   500.0008
0.000625  250    5   250.0000
0.000625  250    6   250.0000
0.000625  250    7   250.0000
0.000625  250    8   250.0000
0.000625  250    9   250.0000
0.000750  300    0   500.0009
0.000750  300    1   500.0009
0.000750  300    2   500.0009
0.000750  300    3   500.0009
0.000750  300    4   500.0009
0.000750  300    5   250.0001
0.000750  300    6   250.0001
0.000750  300    7   250.0001
0.000750  300    8   250.0001
0.000750  300    9   250.0001
0.000875  350    0   500.0011
0.000875  350    1   500.0011
0.000875  350    2   500.0011
0.000875  350    3   500.0011
0.000875  350    4   500.0011
0.000875  350    5   250.0001
0.000875  350    6   250.0001
0.000875  350    7   250.0001
0.000875  350    8   250.0001
0.000875  350    9   250.0001
0.001000  400    0   500.0012
0.001000  400    1   500.0012
0.001000  400    2   500.0012
0.001000  400    3   500.0012
0.001000  400    4   500.0012
0.001000  400    5   250.0001
0.001000  400    6   250.0001
0.001000  400    7   250.0001
0.001000  400    8   250.0001
0.001000  400    9   250.0001
t 0.001: p0 error [1.2e-06 4e-05] sol [(0.999499 0.031618) (-0.999833 31.607006)] exact [(0.999500 0.031618) (-0.999833 31.606967)] energy/exact energy 500.001 / 500. (0.0002498337%)
t 0.001: p1 error [1.2e-06 4e-05] sol [(0.278792 0.960350) (-30.369015 8.816204)] exact [(0.278792 0.960351) (-30.368977 8.816192)] energy/exact energy 500.001 / 500. (0.0002498337%)
t 0.001: p2 error [1.2e-06 4e-05] sol [(-0.827196 0.561912) (-17.769250 -26.158292)] exact [(-0.827197 0.561912) (-17.769227 -26.158260)] energy/exact energy 500.001 / 500. (0.0002498337%)
t 0.001: p3 error [1.2e-06 4e-05] sol [(-0.790027 -0.613070) (19.387014 -24.982918)] exact [(-0.790028 -0.613070) (19.386991 -24.982886)] energy/exact energy 500.001 / 500. (0.0002498337%)
t 0.001: p4 error [1.2e-06 4e-05] sol [(0.338932 -0.940809) (29.751084 10.718000)] exact [(0.338933 -0.940811) (29.751046 10.717988)] energy/exact energy 500.001 / 500. (0.0002498337%)
t 0.001: p5 error [3.1e-07 3.5e-06] sol [(1.999875 0.022360) (-0.249995 22.359286)] exact [(1.999875 0.022360) (-0.249995 22.359282)] energy/exact energy 250. / 250. (0.0000312474%)
t 0.001: p6 error [3.1e-07 3.5e-06] sol [(0.596729 1.908904) (-21.342197 6.671640)] exact [(0.596730 1.908904) (-21.342194 6.671639)] energy/exact energy 250. / 250. (0.0000312474%)
t 0.001: p7 error [3.1e-07 3.5e-06] sol [(-1.631076 1.157407) (-12.940208 -18.235985)] exact [(-1.631076 1.157407) (-12.940206 -18.235983)] energy/exact energy 250. / 250. (0.0000312474%)
t 0.001: p8 error [3.1e-07 3.5e-06] sol [(-1.604790 -1.193587) (13.344708 -17.942099)] exact [(-1.604790 -1.193587) (13.344706 -17.942096)] energy/exact energy 250. / 250. (0.0000312474%)
t 0.001: p9 error [3.1e-07 3.5e-06] sol [(0.639261 -1.895084) (21.187692 7.147158)] exact [(0.639261 -1.895084) (21.187688 7.147157)] energy/exact energy 250. / 250. (0.0000312474%)
L_2 convergence rate: 1.0
Time     Step Part     Energy
0.000000    0    0   500.0000
0.000000    0    1   500.0000
0.000000    0    2   500.0000
0.000000    0    3   500.0000
0.000000    0    4   500.0000
0.000000    0    5   250.0000
0.000000    0    6   250.0000
0.000000    0    7   250.0000
0.000000    0    8   250.0000
0.000000    0    9   250.0000
0.000500   50    0   500.0025
0.000500   50    1   500.0025
0.000500   50    2   500.0025
0.000500   50    3   500.0025
0.000500   50    4   500.0025
0.000500   50    5   250.0002
0.000500   50    6   250.0002
0.000500   50    7   250.0002
0.000500   50    8   250.0002
0.000500   50    9   250.0002
0.001000  100    0   500.0050
0.001000  100    1   500.0050
0.001000  100    2   500.0050
0.001000  100    3   500.0050
0.001000  100    4   500.0050
0.001000  100    5   250.0003
0.001000  100    6   250.0003
0.001000  100    7   250.0003
0.001000  100    8   250.0003
0.001000  100    9   250.0003
